{
	"info": {
		"_postman_id": "2e2862b6-3270-4dac-bc88-fb610d99e750",
		"name": "QuoteGeneration",
		"schema": "https://schema.getpostman.com/json/collection/v2.1.0/collection.json"
	},
	"item": [
		{
			"name": "Create Quote",
			"request": {
				"method": "POST",
				"header": [],
				"body": {
					"mode": "raw",
					"raw": "{\r\n    \"client\":\r\n    {\r\n        \"name\": \"Jada Salma\",\r\n        \"address\": \"Nevada, 44 \",\r\n        \"email\": \"jada@gmail.com\",\r\n        \"phoneNo\": 794938382823\r\n    },\r\n    \"attentionOf\":\"Piemonte Calcio\",\r\n    \"products\": [{\r\n        \"name\": \"Product Manager\",\r\n        \"quantity\": 1,\r\n        \"total\": 39500,\r\n        \"subProducts\": [{\r\n            \"name\":\"Billing\",\r\n            \"quantity\": 3\r\n        }]\r\n    }],\r\n    \"totalAmount\": 42000\r\n}",
					"options": {
						"raw": {
							"language": "json"
						}
					}
				},
				"url": {
					"raw": "http://localhost:3005/createQuote",
					"protocol": "http",
					"host": [
						"localhost"
					],
					"port": "3005",
					"path": [
						"createQuote"
					]
				}
			},
			"response": []
		},
		{
			"name": "Get single quote",
			"request": {
				"method": "GET",
				"header": [],
				"url": {
					"raw": "http://localhost:3005/getQuote/6059a781a70c4b34d4ff8bed",
					"protocol": "http",
					"host": [
						"localhost"
					],
					"port": "3005",
					"path": [
						"getQuote",
						"6059a781a70c4b34d4ff8bed"
					]
				}
			},
			"response": []
		},
		{
			"name": "Get Quotes",
			"request": {
				"method": "GET",
				"header": [],
				"url": {
					"raw": "http://localhost:3005/getQuotes",
					"protocol": "http",
					"host": [
						"localhost"
					],
					"port": "3005",
					"path": [
						"getQuotes"
					]
				}
			},
			"response": []
		},
		{
			"name": "Update quote",
			"request": {
				"method": "POST",
				"header": [],
				"url": {
					"raw": "http://localhost:3000/updateQuote/6059a781a70c4b34d4ff8bed",
					"protocol": "http",
					"host": [
						"localhost"
					],
					"port": "3000",
					"path": [
						"updateQuote",
						"6059a781a70c4b34d4ff8bed"
					]
				}
			},
			"response": []
		},
		{
			"name": "Delete quote",
			"request": {
				"method": "GET",
				"header": [],
				"url": {
					"raw": "http://localhost:3000/deleteQuote/6059a781a70c4b34d4ff8bed",
					"protocol": "http",
					"host": [
						"localhost"
					],
					"port": "3000",
					"path": [
						"deleteQuote",
						"6059a781a70c4b34d4ff8bed"
					]
				}
			},
			"response": []
		},
		{
			"name": "Create Client",
			"request": {
				"method": "POST",
				"header": [],
				"body": {
					"mode": "raw",
					"raw": "{\r\n    \"name\":\"Bond, James Bond\",\r\n    \"address\":\"Nevada, USA\",\r\n    \"email\": \"bond007@gmail.com\",\r\n    \"phoneNo\": 9593827726\r\n}",
					"options": {
						"raw": {
							"language": "json"
						}
					}
				},
				"url": {
					"raw": "http://localhost:3005/createClient",
					"protocol": "http",
					"host": [
						"localhost"
					],
					"port": "3005",
					"path": [
						"createClient"
					]
				}
			},
			"response": []
		},
		{
			"name": "Get single Client",
			"request": {
				"method": "GET",
				"header": [],
				"url": {
					"raw": "http://localhost:3005/getClient/6059ada8a70c4b34d4ff8bee",
					"protocol": "http",
					"host": [
						"localhost"
					],
					"port": "3005",
					"path": [
						"getClient",
						"6059ada8a70c4b34d4ff8bee"
					]
				}
			},
			"response": []
		},
		{
			"name": "Get all clients",
			"request": {
				"method": "GET",
				"header": [],
				"url": {
					"raw": "http://localhost:3005/getClients",
					"protocol": "http",
					"host": [
						"localhost"
					],
					"port": "3005",
					"path": [
						"getClients"
					]
				}
			},
			"response": []
		},
		{
			"name": "Update Client",
			"request": {
				"method": "POST",
				"header": [],
				"url": {
					"raw": "http://localhost:3005/updateClient/6059ada8a70c4b34d4ff8bee",
					"protocol": "http",
					"host": [
						"localhost"
					],
					"port": "3005",
					"path": [
						"updateClient",
						"6059ada8a70c4b34d4ff8bee"
					]
				}
			},
			"response": []
		},
		{
			"name": "Delete client ",
			"request": {
				"method": "DELETE",
				"header": [],
				"url": {
					"raw": "http://localhost:3005/deleteClient/6059ada8a70c4b34d4ff8bee",
					"protocol": "http",
					"host": [
						"localhost"
					],
					"port": "3005",
					"path": [
						"deleteClient",
						"6059ada8a70c4b34d4ff8bee"
					]
				}
			},
			"response": []
		},
		{
			"name": "Delete product",
			"request": {
				"method": "DELETE",
				"header": [],
				"url": {
					"raw": "http://localhost:3005/deleteProduct/6059ada8a70c4b34d4ff8bee",
					"protocol": "http",
					"host": [
						"localhost"
					],
					"port": "3005",
					"path": [
						"deleteProduct",
						"6059ada8a70c4b34d4ff8bee"
					]
				}
			},
			"response": []
		}
	]
}